Expected Columns for Individual MDUFA Datasets — mdufa_cols • mdufa
…
mdufa_cols

    Format

    Character vector of 14 column names

    Examples

# Check if a dataset has expected columns
identical(names(mdufa4), mdufa_cols)
#> [1] TRUE

# Reorder columns to standard order
mdufa4[, mdufa_cols]
#> # A tibble: 16,275 × 14
#>    report_description   report_link report_date report_mdufa_period source page 
#>    <chr>                <chr>       <date>      <chr>               <chr>  <chr>
#>  1 November 16, 2023 M… https://ww… 2023-11-16  MDUFA IV            Table… 17   
#>  2 November 16, 2023 M… https://ww… 2023-11-16  MDUFA IV            Table… 17   
#>  3 November 16, 2023 M… https://ww… 2023-11-16  MDUFA IV            Table… 17   
#>  4 November 16, 2023 M… https://ww… 2023-11-16  MDUFA IV            Table… 17   
#>  5 November 16, 2023 M… https://ww… 2023-11-16  MDUFA IV            Table… 17   
#>  6 November 16, 2023 M… https://ww… 2023-11-16  MDUFA IV            Table… 17   
#>  7 November 16, 2023 M… https://ww… 2023-11-16  MDUFA IV            Table… 17   
#>  8 November 16, 2023 M… https://ww… 2023-11-16  MDUFA IV            Table… 17   
#>  9 November 16, 2023 M… https://ww… 2023-11-16  MDUFA IV            Table… 17   
#> 10 November 16, 2023 M… https://ww… 2023-11-16  MDUFA IV            Table… 17   
#> # ℹ 16,265 more rows
#> # ℹ 8 more variables: table_number <chr>, organization <chr>, program <chr>,
#> #   table_title <chr>, metric_type <chr>, performance_metric <chr>, fy <chr>,
#> #   value <chr>
…
